<?xml version="1.0" encoding="UTF-8"?>
<svg width="14px" height="24px" viewBox="0 0 14 24" version="1.1" xmlns="http://www.w3.org/2000/svg" xmlns:xlink="http://www.w3.org/1999/xlink">
    <!-- Generator: Sketch 52.6 (67491) - http://www.bohemiancoding.com/sketch -->
    <title>Path</title>
    <desc>Created with Sketch.</desc>
    <g id="Page-1-Copy" stroke="none" stroke-width="1" fill="none" fill-rule="evenodd">
        <g id="pembayaran" transform="translate(-27.000000, -48.000000)" fill="#E54141">
            <path d="M31.3054887,60.0000842 L40.7595329,50.5491377 C40.9197881,50.3888479 41,50.2043842 41,49.9959991 C41,49.787614 40.9198724,49.6031502 40.7595329,49.4431974 L39.556608,48.2406452 C39.3961844,48.0804397 39.2117477,48 39.0038036,48 C38.7952696,48 38.6108329,48.0804397 38.4504934,48.2406452 L27.2402985,59.4468614 C27.0799591,59.6071511 27,59.7916149 27,60 C27,60.2084694 27.0799591,60.3928489 27.2402985,60.5531386 L38.4499037,71.7593548 C38.6104958,71.9198973 38.7951011,72 39.0035507,72 C39.2117477,72 39.3961844,71.9198973 39.5565238,71.7593548 L40.7594487,70.5576449 C40.9197038,70.3973552 40.9996629,70.2128072 40.9996629,70.0042536 C40.9996629,69.796037 40.9197881,69.6116574 40.7594487,69.4513677 L31.3054887,60.0000842 Z" id="Path"></path>
        </g>
    </g>
</svg>