<?xml version="1.0" encoding="UTF-8"?>
<svg width="22px" height="22px" viewBox="0 0 22 22" version="1.1" xmlns="http://www.w3.org/2000/svg" xmlns:xlink="http://www.w3.org/1999/xlink">
    <!-- Generator: Sketch 52.6 (67491) - http://www.bohemiancoding.com/sketch -->
    <title>Shape</title>
    <desc>Created with Sketch.</desc>
    <g id="Page-1-Copy" stroke="none" stroke-width="1" fill="none" fill-rule="evenodd">
        <g id="pembayaran" transform="translate(-405.000000, -249.000000)" fill="#367DCF" fill-rule="nonzero">
            <g id="Group" transform="translate(405.000000, 249.000000)">
                <g id="information-button">
                    <g id="Group">
                        <g>
                            <g id="Capa_1">
                                <path d="M20.5117914,5.47486797 C19.5287487,3.79074057 18.1953141,2.45730592 16.5111365,1.47431337 C14.8266582,0.491370942 12.9878149,0 10.9932028,0 C8.99879125,0 7.15939644,0.491370942 5.47521891,1.47431337 C3.79094111,2.45715552 2.45750646,3.79059016 1.47446377,5.47486797 C0.491370942,7.15924605 0,8.99864085 0,10.992902 C0,12.9872633 0.491521346,14.8263574 1.47431337,16.5108357 C2.45730592,18.1949631 3.79074057,19.5283978 5.47501838,20.5114906 C7.15939644,21.4943829 8.99864085,21.9858039 10.9930022,21.9858039 C12.9873637,21.9858039 14.8268086,21.4943829 16.5110864,20.5114906 C18.1952639,19.5287487 19.5286485,18.1949631 20.5115909,16.5108357 C21.4943829,14.8265078 21.9857037,12.9871631 21.9857037,10.992902 C21.9857538,8.99844031 21.4943829,7.15899537 20.5117914,5.47486797 Z M9.16097725,2.74803749 C9.16097725,2.61437818 9.20384247,2.50473342 9.28982366,2.41890268 C9.37565437,2.33312208 9.48549965,2.2900563 9.6190587,2.2900563 L12.3674471,2.2900563 C12.5009059,2.2900563 12.6107512,2.33312208 12.6963814,2.41890268 C12.782162,2.50473342 12.8253782,2.61437818 12.8253782,2.74803749 L12.8253782,5.03829433 C12.8253782,5.17185338 12.782162,5.28164854 12.6963814,5.36737901 C12.6107512,5.45320974 12.500956,5.49612511 12.3674471,5.49612511 L9.6190587,5.49612511 C9.48549965,5.49612511 9.37570453,5.45320974 9.28982366,5.36737901 C9.20384247,5.28169868 9.16097725,5.17185338 9.16097725,5.03829433 L9.16097725,2.74803749 Z M14.657353,17.863472 C14.657353,17.9969308 14.6140868,18.1067761 14.5285067,18.1924062 C14.443077,18.2783373 14.3332317,18.3212527 14.1994721,18.3212527 L7.78678304,18.3212527 C7.65307359,18.3212527 7.54342884,18.2783373 7.45754796,18.1924062 C7.37171722,18.1067761 7.32880185,17.9969809 7.32880185,17.8633216 L7.32880185,15.5730648 C7.32880185,15.4392049 7.37171722,15.3297607 7.45754796,15.2438296 C7.54342884,15.1581995 7.65322399,15.1149833 7.78678304,15.1149833 L9.16097725,15.1149833 L9.16097725,10.5347704 L7.78678304,10.5347704 C7.65307359,10.5347704 7.54347897,10.4919052 7.45754796,10.4060243 C7.37171722,10.3202437 7.32880185,10.2104485 7.32880185,10.0767892 L7.32880185,7.78668277 C7.32880185,7.65302345 7.37171722,7.5433787 7.45754796,7.4574477 C7.54352911,7.37156682 7.65332426,7.32870159 7.78678304,7.32870159 L12.3674471,7.32870159 C12.5009059,7.32870159 12.6107512,7.37156682 12.6963814,7.4574477 C12.782162,7.5433787 12.8253782,7.65302345 12.8253782,7.78668277 L12.8253782,15.1153342 L14.1991212,15.1153342 C14.3329309,15.1153342 14.442726,15.1581995 14.5285067,15.24398 C14.6139364,15.3298108 14.6571525,15.4395558 14.6571525,15.5732152 L14.6571525,17.8635221 L14.657353,17.8635221 L14.657353,17.863472 Z" id="Shape"></path>
                            </g>
                        </g>
                    </g>
                </g>
            </g>
        </g>
    </g>
</svg>